{
  "type": "service_account",
  "private_key_id": "e84efbfdfae56f0056af067cfca05e63baebaa46",
  "private_key": "-----BEGIN PRIVATE KEY-----\nMIIEvQIBADANBgkqhkiG9w0BAQEFAASCBKcwggSjAgEAAoIBAQDYSxhI+cyjnyE3\nkMubJzpo3VqCcERMejL45sGGm1c/6msEgpnznJ1svZQ1wGfy7czoxa94p62vvZe+\npmujPN8VbB3BXbICfmuGm5+BszUH0TQJofZ8PrOXetgSvgykxnEu1yyrmGlUKzBb\nSQODkW0u9QMC+rV6c5LaYnKTkI65kTn2Jm/dcpex2pz7IKD1CAjJ0gbTxBvfZwCe\nvh1xbdjsX1jgpicwQ9GiqBCriPCUqCgjB+AoKM442a4EsDusKc9mpw5cRp6wv4OU\nsd5aCxws8EJrJiH0lY6POQ3KL7LgLcLA9FDlU+1YklDNNLYBpEJuhwrxjkdCVutr\nc5ULB8CfAgMBAAECggEAbXmc4hrldA+wDWLRW0eAreET1Z+jQh47vHV3kH0BrU0m\nO5Mq/v3PRGG0KXyoYHHyXALq7KPaKnBI5Otw4Z+Gvl4JtXyKA+8e13PfSRN+jOVb\ndGCw1HQcDFjWEq500dXLJc0tQ/ERptNxV1LeX3J1E+ZZTuG8hy0GMFjR61SomM01\nl4v+hwVuY7Pbpck/cPqkIJIWjI+SPM7JGkO2idTl/T1czGhselzxNXXPq3Y2gpLG\nlVCks8U7J1qRaRYHSbQBQHVRDzXVv+N8V9dAN/I1hPCaXUSvmpw/kL8v9eq5bikp\nUmaabG4mEESN26zYsM2we7i1SKrZD0Qf+2feAKOrsQKBgQDr4exYu11p6OVH5/1Q\n8oqP2FwBEJNN1wUogHbNjTS2BX2M6eDKz3eJllq3G+sAsLN2vPUgbJtBTm8vFtDm\nGaKb19oKmEbjY+HkVXYiJHVVHfu8JNWd9PrgvuuCETRm2e0WsNmlMiEkOuA+cqze\nle5tFi+darKKZLOHgXXNx8Q92QKBgQDqvXoLoEfvKdnHIMKh8hEEMpp+sSdaMlO8\ntnaJmXGzLGBLnVSD5M/N0FgVgVce6FpHQBffkIE35O5SWucuH0V+hdoNrbwKgA/2\nSob9KLN8lx2WYduyDgGhU6CS5i2g3V42GGS4547KdKUU/75FUmTH9am6ZhSsKATW\nm9IxqzzPNwKBgGq0ziUpxU1W9Pm9YaPPxIzj9GLq66gn4AZ9bsD34uOAwlYPqwg0\nKEBOiwUQlRO/27+YJU+gse8uGy/zI1ckO6JCWDm4v0C4e4S+gG1bjtSNdsaa5yPI\nogEvfPxe6hSo+w7ru9l2PvXTyIOXfspGixBAHBQbI19lxK1FDFSlzQmpAoGASvA2\nWCPREx7vMUzaFc0rdYWaILv5bigG54Xwjbj4vVR7YWhWpMyVMoVCuYrS/0D6ISjq\n9ioxtmBVXOE8UFMXYm7kz90Y3NlJPz1HnuYxdqLfhTS0aEFkb9Y8uujUxDgnbWmY\nLhduVF+sm+mRGpxVJCjfCGyySMt1z/VqwwSBoz0CgYEAjhUz1TLvb4bzQ1wlTaQG\n6shccFnwBJKhcjK9ogCyLrSOmaP8Heqi0RhxZv9+Bf6AMc7f6w9G3q5eCEDgOjce\n902N9UR6GqxqRShhhsIN7MvtNLQGRk8id4dBzeyHqwqfRxQWBK9fym5KHk67Vz4Q\nieiDkZICEeRcJWdhZne8rSM=\n-----END PRIVATE KEY-----\n",
  "client_email": "account-2@manei-1128.iam.gserviceaccount.com",
  "client_id": "118443409515724400110",
  "auth_uri": "https://accounts.google.com/o/oauth2/auth",
  "token_uri": "https://accounts.google.com/o/oauth2/token",
  "auth_provider_x509_cert_url": "https://www.googleapis.com/oauth2/v1/certs",
  "client_x509_cert_url": "https://www.googleapis.com/robot/v1/metadata/x509/account-2%40manei-1128.iam.gserviceaccount.com"
}
